9 5 20
1058 123213 354
589 3 144
10 44 112
44 45 17
837799 837790 525
1 1000000 525
49 21321 279
5145 12321 268
656 123 145
100 1000 179
200 2000 182
300 350 144
304 103 128
400 200 144
3004 23185 279
100589 592741 470
12345 54321 340
123 321 131
1234 4321 238
1 1 1
2 2 2
3 3 8
4 4 3
40 405 144
509 195 144
3 1005 179
1000 5000 238
5091 19573 279
98881 199952 383
100650 200030 383
879 901 148
40500 70918 340
2305 59231 340
1000 40000 324
1001 40005 324
1556 999133 525
10004 95031 351
90001 90005 165
1000000 1000000 153
999884 999203 396
99573 105831 341
21359 432491 449
800503 874912 525
85713 312321 443
11111 22222 279
33333 44444 324
55555 66666 335
77777 88888 338
99999 221133 386
9478 137855 354
1 953457 525
1 954213 525
1 857313 525
100 53259 340
99 213845 383
689534 118571 509
4200 8080 262
10681 669123 509
50 500 144
501 23000 279
1004 40005 324
100589 132100 354
958 8913 262
213 5435 238
1321 45345 324
131 67757 340
883 5578 238
333 5655 238
3213 756756 509
999 8885 262
5558 22237 279
9998 888887 525
7776 66668 340
55554 444546 449
3334 44442 324
22222 222234 386
885 5345 238
21321 213215 383
545 45454 324
767 67676 340
3434 213213 383
9995 88842 351
1854 3175 217
44 99 119
18 48 112
27 589 144
588 8885 262
8993 23185 279
885 1234 182
1234 56789 340
12345 678910 509
123 123456 354
993 232745 443
276 5377 238
88847 555573 470
228573 876372 525
185726 738195 509
2222 5581 238
2313 58588 340
