1 10 20
100 200 125
201 210 89
900 1000 174
38277 10183 324
615145 24161 470
464532 544445 470
191890 511867 449
708189 976367 525
627682 820223 504
709824 828937 468
883531 374444 525
310565 906768 525
389280 953816 525
422688 908119 525
842094 830730 525
76085 600168 470
493420 856903 525
471894 835892 509
603862 256823 470
793488 944124 525
985340 476782 525
841580 881260 432
78911 176225 383
359479 24665 443
680351 380079 509
166111 704425 509
616829 23531 470
388225 609966 470
52088 944616 525
492535 778610 509
369205 347853 410
289220 666666 509
193257 261514 443
299781 895104 525
824278 202811 509
833340 365958 509
252968 905087 525
614698 166424 470
362509 584842 470
169896 168631 334
267419 556091 470
381228 575868 470
185183 165596 365
918609 536355 525
117680 593222 470
7357 524562 470
67238 893029 525
26360 422396 449
492823 718196 509
256166 359393 441
889031 93747 525
693165 228005 509
116652 558552 470
945673 986320 458
527259 950256 525
645886 876505 525
22384 354619 443
82174 783385 509
12745 999650 525
791778 875435 525
368368 803735 509
397178 38862 443
800690 49887 509
896376 350984 525
980774 157556 525
294615 346326 441
20890 789911 509
163675 78331 383
469540 809689 509
560447 414870 470
344043 980586 525
594554 89347 470
341308 642980 509
594651 289270 470
649027 804767 504
603717 262792 470
442264 862575 525
359125 947152 525
508429 110509 449
761238 310307 509
830465 263389 509
920750 812194 525
969694 153067 525
669765 604449 509
733489 512134 509
173685 171754 347
146419 634527 509
650040 28608 509
987379 164243 525
770425 542404 509
893544 966146 507
663075 647995 429
722984 364578 509
396839 396992 268
19001 689100 509
84151 266765 443
421420 157053 449
182652 619098 470
182783 580785 470
836634 657493 504
839199 616294 525
804801 231829 509
991491 121453 525
597244 179332 470
624143 78633 470
149251 802989 509
977195 420295 525
200652 615431 470
27006 336266 443
856787 830077 525
138121 704387 509
573652 258313 470
514291 382582 470
397400 575705 470
834470 518016 509
863036 680559 525
569000 870329 525
39117 583454 470
477296 914562 525
638853 670930 442
260426 211752 443
131151 884225 525
525944 431237 470
623630 399372 470
424699 591718 470
755056 502766 509
557637 930636 525
838471 296198 525
617557 488543 470
901149 285216 525
787510 386897 509
19772 64464 340
446179 948016 525
109980 764819 509
451975 614340 470
338760 93887 443
55906 367587 443
393990 516014 470
984965 938817 507
273551 205225 443
710077 911091 525
686792 61941 509
427387 576548 470
23905 825925 509
463545 341594 449
229295 792045 509
616523 518050 452
375871 214140 443
650586 176008 509
342160 880038 525
458663 248607 449
127833 539456 470
666257 567816 509
