961704 174123 525
168402 572652 470
318732 482712 449
519169 550668 452
828961 713673 468
337444 500614 449
329955 827787 509
272183 800734 509
610063 969866 525
186108 101602 383
862234 330383 525
337843 560224 470
515156 816088 509
427596 396003 449
868775 763255 525
494947 22596 449
269319 686649 509
676715 765626 504
444716 613912 470
937144 767326 525
307599 854721 525
100185 5791 351
494184 428694 444
588432 356021 470
81688 214607 383
33223 928509 525
145442 61727 375
209417 503785 449
84182 87057 302
589908 555845 434
91226 874448 525
405605 138545 443
820014 994020 525
146637 985407 525
250975 503243 449
122959 49216 354
377596 386714 379
339422 399351 441
396169 866428 525
26781 173174 383
553347 345801 470
429246 936002 525
339226 229354 443
346336 518652 470
383503 636107 509
519930 383757 470
449594 421219 418
879664 719493 525
810648 661045 504
10888 718521 509
289359 56161 443
299204 286599 389
695222 513633 509
735239 996864 525
524757 523455 364
11746 72225 340
537348 8244 470
822883 307015 509
126351 829120 509
547874 360978 470
587980 529375 452
23801 202858 383
841023 626223 525
691353 768755 504
793825 813272 468
24730 446538 449
972406 110169 525
548163 60140 470
681143 302900 509
294739 393613 441
448859 652727 509
879805 80283 525
639373 813461 504
783475 121404 509
799578 786453 468
359707 454750 449
902180 314419 525
708815 684140 504
255526 556982 470
546101 48440 470
553043 892411 525
171282 271332 443
478870 2012 449
627525 337724 509
873459 755180 525
333627 967477 525
204065 562674 470
519903 62477 470
