156384 517243 470
628915 825979 504
807761 172024 509
304383 9209 443
383641 616071 470
927368 263063 525
226688 465299 449
932406 913980 476
680788 419707 509
171806 623070 470
19958 89270 351
987669 570769 525
503078 232123 449
28938 866905 525
647940 2258 509
625611 512105 452
548762 320301 470
282446 901489 525
595907 614608 403
615122 807995 509
322197 735614 509
48890 546980 470
795535 217647 509
132085 765722 509
755370 761884 380
963347 936853 507
491803 28952 449
681879 822484 504
422424 420563 356
623589 941358 525
413161 207186 449
807233 912527 525
74797 701831 509
806521 83562 509
257519 929770 525
132956 630937 509
57112 520130 470
142943 912095 525
494706 317659 449
208362 568069 470
918750 5451 525
544154 69783 470
251706 138851 443
12755 260586 443
368267 891620 525
198970 750561 509
243475 485527 449
680957 333559 509
195712 713679 509
665966 580844 509
557529 356783 470
921135 734735 525
288433 157680 443
981363 774354 525
513051 269895 470
159747 519594 470
820085 872009 525
863574 518355 525
199464 542244 470
605629 976252 525
178585 878167 525
630783 937392 525
949521 181454 525
454287 645621 509
280236 149672 443
687355 610726 509
96533 716322 509
236637 298818 407
712762 290522 509
828054 190353 509
158780 369501 443
970759 862292 507
165574 382491 443
486661 343407 449
660281 103506 509
647901 983917 525
186757 31216 383
102431 367747 443
953463 759410 525
78484 381635 443
955915 717625 525
492790 269054 449
105800 100445 341
776940 139584 509
882978 278634 525
26652 858226 525
752672 730959 424
975443 785941 525
454620 772258 509
824101 46233 509
319270 251375 407
923794 910566 445
892865 429840 525
50725 308226 443
866686 90136 525
184761 385200 443
521219 921672 525
670278 119173 509
1488 75431 340
848099 623892 525
778985 570221 509
355200 472168 449
701955 294196 509
695179 508244 509
170362 312670 443
417418 820383 509
843645 206344 525
198592 184538 360
142447 662148 509
208177 490844 449
999665 15536 525
34800 900720 525
243239 274595 407
302794 623083 470
107484 525355 470
598901 599194 297
771236 547368 509
226525 846613 525
981088 37457 525
462547 214309 449
625852 726334 509
686964 24068 509
388791 166608 443
383260 182021 443
382480 303126 441
942263 664751 525
106298 628672 509
115441 245486 443
953041 766954 525
532550 441442 470
855892 261634 525
837983 522879 525
662808 345488 509
499060 601978 470
832750 148128 509
243924 595178 470
555746 511438 470
411978 464777 444
46329 560177 470
261402 156702 443
742149 277450 509
508251 311531 449
293401 970497 525
884880 845271 432
945091 619151 525
845152 332239 525
25045 602343 470
130378 560219 470
876505 461523 525
327322 902655 525
943440 506245 525
749590 930889 525
694570 829822 504
110422 189619 383
534215 886475 525
106514 404156 443
89173 950747 525
731622 697604 504
506470 98743 449
355536 666397 509
590412 90976 470
882034 519470 525
142272 80768 354
971944 984164 427
836931 66202 509
552955 188998 470
439824 438888 356
810956 882720 525
64612 425926 449
535399 700598 509
964234 973990 458
19189 997596 525
966491 403444 525
580327 657877 509
246769 136135 443
679284 511135 509
863352 526103 525
433977 175767 449
870218 645855 525
490844 643952 509
677277 702201 442
478385 122450 449
237777 409592 441
540898 643217 509
253699 703883 509
9298 986837 525
533170 988308 525
516252 80793 470
880125 345058 525
930811 161008 525
946414 785309 525
801219 390819 509
716383 44221 509
987357 250080 525
63020 556761 470
672169 375243 509
705236 833137 468
565387 337729 470
714158 224502 509